#
# There is insufficient memory for the Java Runtime Environment to continue.
# Native memory allocation (mmap) failed to map 90177536 bytes for committing reserved memory.
# Possible reasons:
#   The system is out of physical RAM or swap space
#   In 32 bit mode, the process size limit was hit
# Possible solutions:
#   Reduce memory load on the system
#   Increase physical memory or swap space
#   Check if swap backing store is full
#   Use 64 bit Java on a 64 bit OS
#   Decrease Java heap size (-Xmx/-Xms)
#   Decrease number of Java threads
#   Decrease Java thread stack sizes (-Xss)
#   Set larger code cache with -XX:ReservedCodeCacheSize=
# This output file may be truncated or incomplete.
#
#  Out of Memory Error (os_linux.cpp:2627), pid=7216, tid=140340755965696
#
# JRE version: Java(TM) SE Runtime Environment (8.0_77-b03) (build 1.8.0_77-b03)
# Java VM: Java HotSpot(TM) 64-Bit Server VM (25.77-b03 mixed mode linux-amd64 compressed oops)
# Failed to write core dump. Core dumps have been disabled. To enable core dumping, try "ulimit -c unlimited" before starting Java again
#

---------------  T H R E A D  ---------------

Current thread (0x00007fa3b4078000):  VMThread [stack: 0x00007fa3a0d82000,0x00007fa3a0e83000] [id=7225]

Stack: [0x00007fa3a0d82000,0x00007fa3a0e83000],  sp=0x00007fa3a0e810e0,  free space=1020k
Native frames: (J=compiled Java code, j=interpreted, Vv=VM code, C=native code)
V  [libjvm.so+0xaba7ea]  VMError::report_and_die()+0x2ba
V  [libjvm.so+0x4f9e3b]  report_vm_out_of_memory(char const*, int, unsigned long, VMErrorType, char const*)+0x8b
V  [libjvm.so+0x91b613]  os::Linux::commit_memory_impl(char*, unsigned long, bool)+0x103
V  [libjvm.so+0x91bb69]  os::pd_commit_memory(char*, unsigned long, unsigned long, bool)+0x29
V  [libjvm.so+0x915e6a]  os::commit_memory(char*, unsigned long, unsigned long, bool)+0x2a
V  [libjvm.so+0x989543]  PSVirtualSpace::expand_by(unsigned long)+0x53
V  [libjvm.so+0x98a948]  PSYoungGen::resize_generation(unsigned long, unsigned long)+0xf8
V  [libjvm.so+0x989aa2]  PSYoungGen::resize(unsigned long, unsigned long)+0x22
V  [libjvm.so+0x986d7b]  PSScavenge::invoke_no_policy()+0xf3b
V  [libjvm.so+0x987501]  PSScavenge::invoke()+0x41
V  [libjvm.so+0x93f300]  ParallelScavengeHeap::failed_mem_allocate(unsigned long)+0x70
V  [libjvm.so+0xabc207]  VM_ParallelGCFailedAllocation::doit()+0x97
V  [libjvm.so+0xac3c35]  VM_Operation::evaluate()+0x55
V  [libjvm.so+0xac200a]  VMThread::evaluate_operation(VM_Operation*)+0xba
V  [libjvm.so+0xac238e]  VMThread::loop()+0x1ce
V  [libjvm.so+0xac2800]  VMThread::run()+0x70
V  [libjvm.so+0x91d9d8]  java_start(Thread*)+0x108

VM_Operation (0x00007fa37baf8d70): ParallelGCFailedAllocation, mode: safepoint, requested by thread 0x00007fa3b4156800


---------------  P R O C E S S  ---------------

Java Threads: ( => current thread )
  0x00007fa3b4158000 JavaThread "pool-2-thread-4" [_thread_blocked, id=7243, stack(0x00007fa37b8f9000,0x00007fa37b9fa000)]
  0x00007fa3b4156800 JavaThread "pool-2-thread-3" [_thread_blocked, id=7242, stack(0x00007fa37b9fa000,0x00007fa37bafb000)]
  0x00007fa3b4155800 JavaThread "pool-2-thread-2" [_thread_blocked, id=7241, stack(0x00007fa37bafb000,0x00007fa37bbfc000)]
  0x00007fa3b4148800 JavaThread "pool-3-thread-1" [_thread_blocked, id=7240, stack(0x00007fa37bbfc000,0x00007fa37bcfd000)]
  0x00007fa3b4146800 JavaThread "pool-2-thread-1" [_thread_blocked, id=7239, stack(0x00007fa37bcfd000,0x00007fa37bdfe000)]
  0x00007fa3b40c0000 JavaThread "Service Thread" daemon [_thread_blocked, id=7232, stack(0x00007fa37beff000,0x00007fa37c000000)]
  0x00007fa3b40bd000 JavaThread "C1 CompilerThread2" daemon [_thread_blocked, id=7231, stack(0x00007fa3a009a000,0x00007fa3a019b000)]
  0x00007fa3b40bb800 JavaThread "C2 CompilerThread1" daemon [_thread_blocked, id=7230, stack(0x00007fa3a019b000,0x00007fa3a029c000)]
  0x00007fa3b40b8800 JavaThread "C2 CompilerThread0" daemon [_thread_blocked, id=7229, stack(0x00007fa3a029c000,0x00007fa3a039d000)]
  0x00007fa3b40b7000 JavaThread "Signal Dispatcher" daemon [_thread_blocked, id=7228, stack(0x00007fa3a039d000,0x00007fa3a049e000)]
  0x00007fa3b4084000 JavaThread "Finalizer" daemon [_thread_blocked, id=7227, stack(0x00007fa3a0b80000,0x00007fa3a0c81000)]
  0x00007fa3b407f800 JavaThread "Reference Handler" daemon [_thread_blocked, id=7226, stack(0x00007fa3a0c81000,0x00007fa3a0d82000)]
  0x00007fa3b400a000 JavaThread "main" [_thread_blocked, id=7218, stack(0x00007fa3bb43b000,0x00007fa3bb53c000)]

Other Threads:
=>0x00007fa3b4078000 VMThread [stack: 0x00007fa3a0d82000,0x00007fa3a0e83000] [id=7225]
  0x00007fa3b40c3000 WatcherThread [stack: 0x00007fa37bdfe000,0x00007fa37beff000] [id=7233]

VM state:at safepoint (normal execution)

VM Mutex/Monitor currently owned by a thread:  ([mutex/lock_event])
[0x00007fa3b4006530] Threads_lock - owner thread: 0x00007fa3b4078000
[0x00007fa3b4006a30] Heap_lock - owner thread: 0x00007fa3b4156800

Heap:
 PSYoungGen      total 66048K, used 2557K [0x00000000eab00000, 0x00000000eee00000, 0x0000000100000000)
  eden space 63488K, 0% used [0x00000000eab00000,0x00000000eab00000,0x00000000ee900000)
  from space 2560K, 99% used [0x00000000ee900000,0x00000000eeb7f480,0x00000000eeb80000)
  to   space 2560K, 0% used [0x00000000eeb80000,0x00000000eeb80000,0x00000000eee00000)
 ParOldGen       total 42496K, used 22162K [0x00000000c0000000, 0x00000000c2980000, 0x00000000eab00000)
  object space 42496K, 52% used [0x00000000c0000000,0x00000000c15a4b88,0x00000000c2980000)
 Metaspace       used 6042K, capacity 7024K, committed 7296K, reserved 1056768K
  class space    used 594K, capacity 616K, committed 640K, reserved 1048576K

Card table byte_map: [0x00007fa3a4dff000,0x00007fa3a5000000] byte_map_base: 0x00007fa3a47ff000

Marking Bits: (ParMarkBitMap*) 0x00007fa3ba912100
 Begin Bits: [0x00007fa3a29fb000, 0x00007fa3a39fb000)
 End Bits:   [0x00007fa3a39fb000, 0x00007fa3a49fb000)

Polling page: 0x00007fa3bb559000

CodeCache: size=245760Kb used=5418Kb max_used=5418Kb free=240341Kb
 bounds [0x00007fa3a5000000, 0x00007fa3a5560000, 0x00007fa3b4000000]
 total_blobs=1728 nmethods=1458 adapters=182
 compilation: enabled

Compilation events (10 events):
Event: 14.844 Thread 0x00007fa3b40bd000 nmethod 1654 0x00007fa3a5548710 code [0x00007fa3a5548b00, 0x00007fa3a554ae68]
Event: 14.844 Thread 0x00007fa3b40bd000 1671       2       com.android.dx.cf.direct.StdAttributeFactory::lineNumberTable (204 bytes)
Event: 14.846 Thread 0x00007fa3b40bd000 nmethod 1671 0x00007fa3a554ca50 code [0x00007fa3a554cda0, 0x00007fa3a554df58]
Event: 14.846 Thread 0x00007fa3b40bd000 1659       2       com.android.dx.cf.iface.StdAttributeList::byteLength (35 bytes)
Event: 14.847 Thread 0x00007fa3b40bd000 nmethod 1659 0x00007fa3a5512590 code [0x00007fa3a5512720, 0x00007fa3a5512998]
Event: 14.847 Thread 0x00007fa3b40bd000 1653       2       com.android.dx.dex.file.ValueEncoder::addContents (75 bytes)
Event: 14.848 Thread 0x00007fa3b40bd000 nmethod 1653 0x00007fa3a5511d90 code [0x00007fa3a5511f40, 0x00007fa3a55122c8]
Event: 14.848 Thread 0x00007fa3b40bd000 1652       2       com.android.dx.ssa.PhiInsn::mapSourceRegisters (78 bytes)
Event: 14.849 Thread 0x00007fa3b40bd000 nmethod 1652 0x00007fa3a5547f10 code [0x00007fa3a55480a0, 0x00007fa3a5548448]
Event: 14.849 Thread 0x00007fa3b40bd000 1650       2       com.android.dx.ssa.back.FirstFitLocalCombiningAllocator::processPhiInsn (255 bytes)

GC Heap History (9 events):
Event: 1.792 GC heap before
{Heap before GC invocations=1 (full 0):
 PSYoungGen      total 18432K, used 15872K [0x00000000eab00000, 0x00000000ebf80000, 0x0000000100000000)
  eden space 15872K, 100% used [0x00000000eab00000,0x00000000eba80000,0x00000000eba80000)
  from space 2560K, 0% used [0x00000000ebd00000,0x00000000ebd00000,0x00000000ebf80000)
  to   space 2560K, 0% used [0x00000000eba80000,0x00000000eba80000,0x00000000ebd00000)
 ParOldGen       total 42496K, used 0K [0x00000000c0000000, 0x00000000c2980000, 0x00000000eab00000)
  object space 42496K, 0% used [0x00000000c0000000,0x00000000c0000000,0x00000000c2980000)
 Metaspace       used 3810K, capacity 5008K, committed 5120K, reserved 1056768K
  class space    used 420K, capacity 456K, committed 512K, reserved 1048576K
Event: 2.010 GC heap after
Heap after GC invocations=1 (full 0):
 PSYoungGen      total 18432K, used 1317K [0x00000000eab00000, 0x00000000ecf00000, 0x0000000100000000)
  eden space 15872K, 0% used [0x00000000eab00000,0x00000000eab00000,0x00000000eba80000)
  from space 2560K, 51% used [0x00000000eba80000,0x00000000ebbc95a8,0x00000000ebd00000)
  to   space 2560K, 0% used [0x00000000ecc80000,0x00000000ecc80000,0x00000000ecf00000)
 ParOldGen       total 42496K, used 8K [0x00000000c0000000, 0x00000000c2980000, 0x00000000eab00000)
  object space 42496K, 0% used [0x00000000c0000000,0x00000000c0002000,0x00000000c2980000)
 Metaspace       used 3810K, capacity 5008K, committed 5120K, reserved 1056768K
  class space    used 420K, capacity 456K, committed 512K, reserved 1048576K
}
Event: 8.365 GC heap before
{Heap before GC invocations=2 (full 0):
 PSYoungGen      total 18432K, used 17189K [0x00000000eab00000, 0x00000000ecf00000, 0x0000000100000000)
  eden space 15872K, 100% used [0x00000000eab00000,0x00000000eba80000,0x00000000eba80000)
  from space 2560K, 51% used [0x00000000eba80000,0x00000000ebbc95a8,0x00000000ebd00000)
  to   space 2560K, 0% used [0x00000000ecc80000,0x00000000ecc80000,0x00000000ecf00000)
 ParOldGen       total 42496K, used 8K [0x00000000c0000000, 0x00000000c2980000, 0x00000000eab00000)
  object space 42496K, 0% used [0x00000000c0000000,0x00000000c0002000,0x00000000c2980000)
 Metaspace       used 5704K, capacity 6704K, committed 6784K, reserved 1056768K
  class space    used 590K, capacity 616K, committed 640K, reserved 1048576K
Event: 9.660 GC heap after
Heap after GC invocations=2 (full 0):
 PSYoungGen      total 34304K, used 2541K [0x00000000eab00000, 0x00000000ecf00000, 0x0000000100000000)
  eden space 31744K, 0% used [0x00000000eab00000,0x00000000eab00000,0x00000000eca00000)
  from space 2560K, 99% used [0x00000000ecc80000,0x00000000ecefb700,0x00000000ecf00000)
  to   space 2560K, 0% used [0x00000000eca00000,0x00000000eca00000,0x00000000ecc80000)
 ParOldGen       total 42496K, used 2184K [0x00000000c0000000, 0x00000000c2980000, 0x00000000eab00000)
  object space 42496K, 5% used [0x00000000c0000000,0x00000000c02221a0,0x00000000c2980000)
 Metaspace       used 5704K, capacity 6704K, committed 6784K, reserved 1056768K
  class space    used 590K, capacity 616K, committed 640K, reserved 1048576K
}
Event: 10.728 GC heap before
{Heap before GC invocations=3 (full 0):
 PSYoungGen      total 34304K, used 34285K [0x00000000eab00000, 0x00000000ecf00000, 0x0000000100000000)
  eden space 31744K, 100% used [0x00000000eab00000,0x00000000eca00000,0x00000000eca00000)
  from space 2560K, 99% used [0x00000000ecc80000,0x00000000ecefb700,0x00000000ecf00000)
  to   space 2560K, 0% used [0x00000000eca00000,0x00000000eca00000,0x00000000ecc80000)
 ParOldGen       total 42496K, used 2184K [0x00000000c0000000, 0x00000000c2980000, 0x00000000eab00000)
  object space 42496K, 5% used [0x00000000c0000000,0x00000000c02221a0,0x00000000c2980000)
 Metaspace       used 5818K, capacity 6832K, committed 7040K, reserved 1056768K
  class space    used 592K, capacity 616K, committed 640K, reserved 1048576K
Event: 10.808 GC heap after
Heap after GC invocations=3 (full 0):
 PSYoungGen      total 34304K, used 2543K [0x00000000eab00000, 0x00000000eee00000, 0x0000000100000000)
  eden space 31744K, 0% used [0x00000000eab00000,0x00000000eab00000,0x00000000eca00000)
  from space 2560K, 99% used [0x00000000eca00000,0x00000000ecc7bf90,0x00000000ecc80000)
  to   space 2560K, 0% used [0x00000000eeb80000,0x00000000eeb80000,0x00000000eee00000)
 ParOldGen       total 42496K, used 7283K [0x00000000c0000000, 0x00000000c2980000, 0x00000000eab00000)
  object space 42496K, 17% used [0x00000000c0000000,0x00000000c071ceb0,0x00000000c2980000)
 Metaspace       used 5818K, capacity 6832K, committed 7040K, reserved 1056768K
  class space    used 592K, capacity 616K, committed 640K, reserved 1048576K
}
Event: 11.940 GC heap before
{Heap before GC invocations=4 (full 0):
 PSYoungGen      total 34304K, used 34287K [0x00000000eab00000, 0x00000000eee00000, 0x0000000100000000)
  eden space 31744K, 100% used [0x00000000eab00000,0x00000000eca00000,0x00000000eca00000)
  from space 2560K, 99% used [0x00000000eca00000,0x00000000ecc7bf90,0x00000000ecc80000)
  to   space 2560K, 0% used [0x00000000eeb80000,0x00000000eeb80000,0x00000000eee00000)
 ParOldGen       total 42496K, used 7283K [0x00000000c0000000, 0x00000000c2980000, 0x00000000eab00000)
  object space 42496K, 17% used [0x00000000c0000000,0x00000000c071ceb0,0x00000000c2980000)
 Metaspace       used 5964K, capacity 6960K, committed 7040K, reserved 1056768K
  class space    used 593K, capacity 616K, committed 640K, reserved 1048576K
Event: 13.448 GC heap after
Heap after GC invocations=4 (full 0):
 PSYoungGen      total 66048K, used 2532K [0x00000000eab00000, 0x00000000eee00000, 0x0000000100000000)
  eden space 63488K, 0% used [0x00000000eab00000,0x00000000eab00000,0x00000000ee900000)
  from space 2560K, 98% used [0x00000000eeb80000,0x00000000eedf91c0,0x00000000eee00000)
  to   space 2560K, 0% used [0x00000000ee900000,0x00000000ee900000,0x00000000eeb80000)
 ParOldGen       total 42496K, used 11570K [0x00000000c0000000, 0x00000000c2980000, 0x00000000eab00000)
  object space 42496K, 27% used [0x00000000c0000000,0x00000000c0b4ca60,0x00000000c2980000)
 Metaspace       used 5964K, capacity 6960K, committed 7040K, reserved 1056768K
  class space    used 593K, capacity 616K, committed 640K, reserved 1048576K
}
Event: 14.861 GC heap before
{Heap before GC invocations=5 (full 0):
 PSYoungGen      total 66048K, used 66020K [0x00000000eab00000, 0x00000000eee00000, 0x0000000100000000)
  eden space 63488K, 100% used [0x00000000eab00000,0x00000000ee900000,0x00000000ee900000)
  from space 2560K, 98% used [0x00000000eeb80000,0x00000000eedf91c0,0x00000000eee00000)
  to   space 2560K, 0% used [0x00000000ee900000,0x00000000ee900000,0x00000000eeb80000)
 ParOldGen       total 42496K, used 11570K [0x00000000c0000000, 0x00000000c2980000, 0x00000000eab00000)
  object space 42496K, 27% used [0x00000000c0000000,0x00000000c0b4ca60,0x00000000c2980000)
 Metaspace       used 6042K, capacity 7024K, committed 7296K, reserved 1056768K
  class space    used 594K, capacity 616K, committed 640K, reserved 1048576K

Deoptimization events (10 events):
Event: 10.932 Thread 0x00007fa3b4146800 Uncommon trap: reason=null_check action=make_not_entrant pc=0x00007fa3a52ada40 method=com.android.dx.ssa.SsaRenamer.getLocalForNewReg(I)Lcom/android/dx/rop/code/LocalItem; @ 19
Event: 11.789 Thread 0x00007fa3b400a000 Uncommon trap: reason=unstable_if action=reinterpret pc=0x00007fa3a5390160 method=com.android.dx.cf.code.Ropper.labelToResultIndex(I)I @ 34
Event: 13.501 Thread 0x00007fa3b4156800 Uncommon trap: reason=unstable_if action=reinterpret pc=0x00007fa3a52a4f90 method=com.android.dx.rop.code.RegisterSpecSet.put(Lcom/android/dx/rop/code/RegisterSpec;)V @ 77
Event: 13.501 Thread 0x00007fa3b4156800 Uncommon trap: reason=unstable_if action=reinterpret pc=0x00007fa3a52a8044 method=com.android.dx.rop.code.RegisterSpecSet.put(Lcom/android/dx/rop/code/RegisterSpec;)V @ 77
Event: 13.536 Thread 0x00007fa3b4156800 Uncommon trap: reason=bimorphic action=maybe_recompile pc=0x00007fa3a532b714 method=java.util.HashMap.getNode(ILjava/lang/Object;)Ljava/util/HashMap$Node; @ 126
Event: 13.536 Thread 0x00007fa3b4156800 Uncommon trap: reason=bimorphic action=maybe_recompile pc=0x00007fa3a532b714 method=java.util.HashMap.getNode(ILjava/lang/Object;)Ljava/util/HashMap$Node; @ 126
Event: 13.536 Thread 0x00007fa3b4156800 Uncommon trap: reason=bimorphic action=maybe_recompile pc=0x00007fa3a532b714 method=java.util.HashMap.getNode(ILjava/lang/Object;)Ljava/util/HashMap$Node; @ 126
Event: 13.536 Thread 0x00007fa3b4156800 Uncommon trap: reason=bimorphic action=maybe_recompile pc=0x00007fa3a532b714 method=java.util.HashMap.getNode(ILjava/lang/Object;)Ljava/util/HashMap$Node; @ 126
Event: 13.678 Thread 0x00007fa3b4158000 Uncommon trap: reason=unstable_if action=reinterpret pc=0x00007fa3a547e7e0 method=com.android.dx.ssa.SCCP.simulateBranch(Lcom/android/dx/ssa/SsaInsn;)V @ 64
Event: 13.765 Thread 0x00007fa3b4158000 Uncommon trap: reason=unstable_if action=reinterpret pc=0x00007fa3a52b31fc method=com.android.dx.ssa.SsaMethod.updateOneDefinition(Lcom/android/dx/ssa/SsaInsn;Lcom/android/dx/rop/code/RegisterSpec;)V @ 4

Internal exceptions (3 events):
Event: 0.252 Thread 0x00007fa3b400a000 Exception <a 'java/lang/NoSuchMethodError': Method sun.misc.Unsafe.defineClass(Ljava/lang/String;[BII)Ljava/lang/Class; name or signature does not match> (0x00000000eab07cc0) thrown at [/HUDSON/workspace/8-2-build-linux-amd64/jdk8u77/6540/hotspot/src/shar
Event: 0.252 Thread 0x00007fa3b400a000 Exception <a 'java/lang/NoSuchMethodError': Method sun.misc.Unsafe.prefetchRead(Ljava/lang/Object;J)V name or signature does not match> (0x00000000eab07fa8) thrown at [/HUDSON/workspace/8-2-build-linux-amd64/jdk8u77/6540/hotspot/src/share/vm/prims/jni.cpp
Event: 10.919 Thread 0x00007fa3b4146800 Implicit null exception at 0x00007fa3a52ab425 to 0x00007fa3a52ad9f9

Events (10 events):
Event: 14.225 Thread 0x00007fa3b4158000 DEOPT UNPACKING pc=0x00007fa3a5047633 sp=0x00007fa37b9f72e0 mode 0
Event: 14.733 Thread 0x00007fa3b4158000 DEOPT PACKING pc=0x00007fa3a540ab82 sp=0x00007fa37b9f7e50
Event: 14.733 Thread 0x00007fa3b4158000 DEOPT UNPACKING pc=0x00007fa3a5047633 sp=0x00007fa37b9f7bd8 mode 0
Event: 14.804 Thread 0x00007fa3b4156800 DEOPT PACKING pc=0x00007fa3a52e5ce0 sp=0x00007fa37baf90e0
Event: 14.804 Thread 0x00007fa3b4156800 DEOPT UNPACKING pc=0x00007fa3a5047633 sp=0x00007fa37baf8ef0 mode 0
Event: 14.825 Thread 0x00007fa3b4156800 DEOPT PACKING pc=0x00007fa3a53f9a61 sp=0x00007fa37baf91d0
Event: 14.825 Thread 0x00007fa3b4156800 DEOPT UNPACKING pc=0x00007fa3a5047633 sp=0x00007fa37baf8fd8 mode 0
Event: 14.846 Thread 0x00007fa3b4146800 DEOPT PACKING pc=0x00007fa3a52d82f7 sp=0x00007fa37bdfbbf0
Event: 14.846 Thread 0x00007fa3b4146800 DEOPT UNPACKING pc=0x00007fa3a5047633 sp=0x00007fa37bdfb980 mode 0
Event: 14.859 Executing VM operation: ParallelGCFailedAllocation


Dynamic libraries:
00400000-00401000 r-xp 00000000 08:04 20197431                           /usr/lib/jvm/java-8-oracle/bin/java
00600000-00601000 rw-p 00000000 08:04 20197431                           /usr/lib/jvm/java-8-oracle/bin/java
011f8000-01219000 rw-p 00000000 00:00 0                                  [heap]
c0000000-c2980000 rw-p 00000000 00:00 0 
c2980000-eab00000 ---p 00000000 00:00 0 
eab00000-eee00000 rw-p 00000000 00:00 0 
f4400000-100000000 ---p 00000000 00:00 0 
100000000-1000a0000 rw-p 00000000 00:00 0 
1000a0000-140000000 ---p 00000000 00:00 0 
7fa350000000-7fa35003b000 rw-p 00000000 00:00 0 
7fa35003b000-7fa354000000 ---p 00000000 00:00 0 
7fa358000000-7fa358022000 rw-p 00000000 00:00 0 
7fa358022000-7fa35c000000 ---p 00000000 00:00 0 
7fa35c000000-7fa35c029000 rw-p 00000000 00:00 0 
7fa35c029000-7fa360000000 ---p 00000000 00:00 0 
7fa360000000-7fa36002f000 rw-p 00000000 00:00 0 
7fa36002f000-7fa364000000 ---p 00000000 00:00 0 
7fa364000000-7fa364021000 rw-p 00000000 00:00 0 
7fa364021000-7fa368000000 ---p 00000000 00:00 0 
7fa368000000-7fa368021000 rw-p 00000000 00:00 0 
7fa368021000-7fa36c000000 ---p 00000000 00:00 0 
7fa36c000000-7fa36c021000 rw-p 00000000 00:00 0 
7fa36c021000-7fa370000000 ---p 00000000 00:00 0 
7fa370000000-7fa3707ee000 rw-p 00000000 00:00 0 
7fa3707ee000-7fa374000000 ---p 00000000 00:00 0 
7fa374000000-7fa374697000 rw-p 00000000 00:00 0 
7fa374697000-7fa378000000 ---p 00000000 00:00 0 
7fa37b8f9000-7fa37b8fc000 ---p 00000000 00:00 0 
7fa37b8fc000-7fa37b9fa000 rw-p 00000000 00:00 0                          [stack:7243]
7fa37b9fa000-7fa37b9fd000 ---p 00000000 00:00 0 
7fa37b9fd000-7fa37bafb000 rw-p 00000000 00:00 0                          [stack:7242]
7fa37bafb000-7fa37bafe000 ---p 00000000 00:00 0 
7fa37bafe000-7fa37bbfc000 rw-p 00000000 00:00 0                          [stack:7241]
7fa37bbfc000-7fa37bbff000 ---p 00000000 00:00 0 
7fa37bbff000-7fa37bcfd000 rw-p 00000000 00:00 0                          [stack:7240]
7fa37bcfd000-7fa37bd00000 ---p 00000000 00:00 0 
7fa37bd00000-7fa37bdfe000 rw-p 00000000 00:00 0                          [stack:7239]
7fa37bdfe000-7fa37bdff000 ---p 00000000 00:00 0 
7fa37bdff000-7fa37beff000 rw-p 00000000 00:00 0                          [stack:7233]
7fa37beff000-7fa37bf02000 ---p 00000000 00:00 0 
7fa37bf02000-7fa37c000000 rw-p 00000000 00:00 0                          [stack:7232]
7fa37c000000-7fa37c021000 rw-p 00000000 00:00 0 
7fa37c021000-7fa380000000 ---p 00000000 00:00 0 
7fa380000000-7fa3809d6000 rw-p 00000000 00:00 0 
7fa3809d6000-7fa384000000 ---p 00000000 00:00 0 
7fa384000000-7fa384021000 rw-p 00000000 00:00 0 
7fa384021000-7fa388000000 ---p 00000000 00:00 0 
7fa388000000-7fa388021000 rw-p 00000000 00:00 0 
7fa388021000-7fa38c000000 ---p 00000000 00:00 0 
7fa38c000000-7fa38c021000 rw-p 00000000 00:00 0 
7fa38c021000-7fa390000000 ---p 00000000 00:00 0 
7fa390000000-7fa39028c000 rw-p 00000000 00:00 0 
7fa39028c000-7fa394000000 ---p 00000000 00:00 0 
7fa394000000-7fa394021000 rw-p 00000000 00:00 0 
7fa394021000-7fa398000000 ---p 00000000 00:00 0 
7fa398000000-7fa398021000 rw-p 00000000 00:00 0 
7fa398021000-7fa39c000000 ---p 00000000 00:00 0 
7fa39c000000-7fa39c021000 rw-p 00000000 00:00 0 
7fa39c021000-7fa3a0000000 ---p 00000000 00:00 0 
7fa3a0084000-7fa3a009a000 r--s 000f1000 08:04 17040515                   /home/hari/AndroidStudioProjects/Nottam/app/build/intermediates/exploded-aar/com.android.support/support-v4/23.3.0/jars/classes.jar
7fa3a009a000-7fa3a009d000 ---p 00000000 00:00 0 
7fa3a009d000-7fa3a019b000 rw-p 00000000 00:00 0                          [stack:7231]
7fa3a019b000-7fa3a019e000 ---p 00000000 00:00 0 
7fa3a019e000-7fa3a029c000 rw-p 00000000 00:00 0                          [stack:7230]
7fa3a029c000-7fa3a029f000 ---p 00000000 00:00 0 
7fa3a029f000-7fa3a039d000 rw-p 00000000 00:00 0                          [stack:7229]
7fa3a039d000-7fa3a03a0000 ---p 00000000 00:00 0 
7fa3a03a0000-7fa3a049e000 rw-p 00000000 00:00 0                          [stack:7228]
7fa3a049e000-7fa3a0b80000 r--p 00000000 08:04 20191796                   /usr/lib/locale/locale-archive
7fa3a0b80000-7fa3a0b83000 ---p 00000000 00:00 0 
7fa3a0b83000-7fa3a0c81000 rw-p 00000000 00:00 0                          [stack:7227]
7fa3a0c81000-7fa3a0c84000 ---p 00000000 00:00 0 
7fa3a0c84000-7fa3a0d82000 rw-p 00000000 00:00 0                          [stack:7226]
7fa3a0d82000-7fa3a0d83000 ---p 00000000 00:00 0 
7fa3a0d83000-7fa3a1e23000 rw-p 00000000 00:00 0                          [stack:7225]
7fa3a1e23000-7fa3a1ffb000 r--s 03d1e000 08:04 20323806                   /usr/lib/jvm/java-8-oracle/jre/lib/rt.jar
7fa3a1ffb000-7fa3a267b000 rw-p 00000000 00:00 0 
7fa3a267b000-7fa3a27fb000 ---p 00000000 00:00 0 
7fa3a27fb000-7fa3a49fb000 rw-p 00000000 00:00 0 
7fa3a49fb000-7fa3a49fc000 ---p 00000000 00:00 0 
7fa3a49fc000-7fa3a4afc000 rw-p 00000000 00:00 0                          [stack:7224]
7fa3a4afc000-7fa3a4afd000 ---p 00000000 00:00 0 
7fa3a4afd000-7fa3a4bfd000 rw-p 00000000 00:00 0                          [stack:7223]
7fa3a4bfd000-7fa3a4bfe000 ---p 00000000 00:00 0 
7fa3a4bfe000-7fa3a4cfe000 rw-p 00000000 00:00 0                          [stack:7222]
7fa3a4cfe000-7fa3a4cff000 ---p 00000000 00:00 0 
7fa3a4cff000-7fa3a4e14000 rw-p 00000000 00:00 0                          [stack:7221]
7fa3a4e14000-7fa3a4f54000 ---p 00000000 00:00 0 
7fa3a4f54000-7fa3a4f76000 rw-p 00000000 00:00 0 
7fa3a4f76000-7fa3a4fff000 ---p 00000000 00:00 0 
7fa3a4fff000-7fa3a5000000 rw-p 00000000 00:00 0 
7fa3a5000000-7fa3a5560000 rwxp 00000000 00:00 0 
7fa3a5560000-7fa3b4000000 ---p 00000000 00:00 0 
7fa3b4000000-7fa3b438f000 rw-p 00000000 00:00 0 
7fa3b438f000-7fa3b8000000 ---p 00000000 00:00 0 
7fa3b8010000-7fa3b80bc000 rw-p 00000000 00:00 0 
7fa3b80bc000-7fa3b81fd000 ---p 00000000 00:00 0 
7fa3b81fd000-7fa3b8213000 rw-p 00000000 00:00 0 
7fa3b8213000-7fa3b85bd000 ---p 00000000 00:00 0 
7fa3b85bd000-7fa3b85d7000 r-xp 00000000 08:04 20323769                   /usr/lib/jvm/java-8-oracle/jre/lib/amd64/libzip.so
7fa3b85d7000-7fa3b87d7000 ---p 0001a000 08:04 20323769                   /usr/lib/jvm/java-8-oracle/jre/lib/amd64/libzip.so
7fa3b87d7000-7fa3b87d8000 rw-p 0001a000 08:04 20323769                   /usr/lib/jvm/java-8-oracle/jre/lib/amd64/libzip.so
7fa3b87d8000-7fa3b87e3000 r-xp 00000000 08:04 22025208                   /lib/x86_64-linux-gnu/libnss_files-2.19.so
7fa3b87e3000-7fa3b89e2000 ---p 0000b000 08:04 22025208                   /lib/x86_64-linux-gnu/libnss_files-2.19.so
7fa3b89e2000-7fa3b89e3000 r--p 0000a000 08:04 22025208                   /lib/x86_64-linux-gnu/libnss_files-2.19.so
7fa3b89e3000-7fa3b89e4000 rw-p 0000b000 08:04 22025208                   /lib/x86_64-linux-gnu/libnss_files-2.19.so
7fa3b89e4000-7fa3b89ef000 r-xp 00000000 08:04 22025200                   /lib/x86_64-linux-gnu/libnss_nis-2.19.so
7fa3b89ef000-7fa3b8bee000 ---p 0000b000 08:04 22025200                   /lib/x86_64-linux-gnu/libnss_nis-2.19.so
7fa3b8bee000-7fa3b8bef000 r--p 0000a000 08:04 22025200                   /lib/x86_64-linux-gnu/libnss_nis-2.19.so
7fa3b8bef000-7fa3b8bf0000 rw-p 0000b000 08:04 22025200                   /lib/x86_64-linux-gnu/libnss_nis-2.19.so
7fa3b8bf0000-7fa3b8c07000 r-xp 00000000 08:04 22025196                   /lib/x86_64-linux-gnu/libnsl-2.19.so
7fa3b8c07000-7fa3b8e06000 ---p 00017000 08:04 22025196                   /lib/x86_64-linux-gnu/libnsl-2.19.so
7fa3b8e06000-7fa3b8e07000 r--p 00016000 08:04 22025196                   /lib/x86_64-linux-gnu/libnsl-2.19.so
7fa3b8e07000-7fa3b8e08000 rw-p 00017000 08:04 22025196                   /lib/x86_64-linux-gnu/libnsl-2.19.so
7fa3b8e08000-7fa3b8e0a000 rw-p 00000000 00:00 0 
7fa3b8e0a000-7fa3b8e13000 r-xp 00000000 08:04 22025195                   /lib/x86_64-linux-gnu/libnss_compat-2.19.so
7fa3b8e13000-7fa3b9012000 ---p 00009000 08:04 22025195                   /lib/x86_64-linux-gnu/libnss_compat-2.19.so
7fa3b9012000-7fa3b9013000 r--p 00008000 08:04 22025195                   /lib/x86_64-linux-gnu/libnss_compat-2.19.so
7fa3b9013000-7fa3b9014000 rw-p 00009000 08:04 22025195                   /lib/x86_64-linux-gnu/libnss_compat-2.19.so
7fa3b9014000-7fa3b903e000 r-xp 00000000 08:04 20323750                   /usr/lib/jvm/java-8-oracle/jre/lib/amd64/libjava.so
7fa3b903e000-7fa3b923e000 ---p 0002a000 08:04 20323750                   /usr/lib/jvm/java-8-oracle/jre/lib/amd64/libjava.so
7fa3b923e000-7fa3b9240000 rw-p 0002a000 08:04 20323750                   /usr/lib/jvm/java-8-oracle/jre/lib/amd64/libjava.so
7fa3b9240000-7fa3b924d000 r-xp 00000000 08:04 20323742                   /usr/lib/jvm/java-8-oracle/jre/lib/amd64/libverify.so
7fa3b924d000-7fa3b944d000 ---p 0000d000 08:04 20323742                   /usr/lib/jvm/java-8-oracle/jre/lib/amd64/libverify.so
7fa3b944d000-7fa3b944f000 rw-p 0000d000 08:04 20323742                   /usr/lib/jvm/java-8-oracle/jre/lib/amd64/libverify.so
7fa3b944f000-7fa3b9456000 r-xp 00000000 08:04 22025204                   /lib/x86_64-linux-gnu/librt-2.19.so
7fa3b9456000-7fa3b9655000 ---p 00007000 08:04 22025204                   /lib/x86_64-linux-gnu/librt-2.19.so
7fa3b9655000-7fa3b9656000 r--p 00006000 08:04 22025204                   /lib/x86_64-linux-gnu/librt-2.19.so
7fa3b9656000-7fa3b9657000 rw-p 00007000 08:04 22025204                   /lib/x86_64-linux-gnu/librt-2.19.so
7fa3b9657000-7fa3b975c000 r-xp 00000000 08:04 22025190                   /lib/x86_64-linux-gnu/libm-2.19.so
7fa3b975c000-7fa3b995b000 ---p 00105000 08:04 22025190                   /lib/x86_64-linux-gnu/libm-2.19.so
7fa3b995b000-7fa3b995c000 r--p 00104000 08:04 22025190                   /lib/x86_64-linux-gnu/libm-2.19.so
7fa3b995c000-7fa3b995d000 rw-p 00105000 08:04 22025190                   /lib/x86_64-linux-gnu/libm-2.19.so
7fa3b995d000-7fa3ba61c000 r-xp 00000000 08:04 20323775                   /usr/lib/jvm/java-8-oracle/jre/lib/amd64/server/libjvm.so
7fa3ba61c000-7fa3ba81b000 ---p 00cbf000 08:04 20323775                   /usr/lib/jvm/java-8-oracle/jre/lib/amd64/server/libjvm.so
7fa3ba81b000-7fa3ba8f4000 rw-p 00cbe000 08:04 20323775                   /usr/lib/jvm/java-8-oracle/jre/lib/amd64/server/libjvm.so
7fa3ba8f4000-7fa3ba93d000 rw-p 00000000 00:00 0 
7fa3ba93d000-7fa3baaf8000 r-xp 00000000 08:04 22025205                   /lib/x86_64-linux-gnu/libc-2.19.so
7fa3baaf8000-7fa3bacf7000 ---p 001bb000 08:04 22025205                   /lib/x86_64-linux-gnu/libc-2.19.so
7fa3bacf7000-7fa3bacfb000 r--p 001ba000 08:04 22025205                   /lib/x86_64-linux-gnu/libc-2.19.so
7fa3bacfb000-7fa3bacfd000 rw-p 001be000 08:04 22025205                   /lib/x86_64-linux-gnu/libc-2.19.so
7fa3bacfd000-7fa3bad02000 rw-p 00000000 00:00 0 
7fa3bad02000-7fa3bad05000 r-xp 00000000 08:04 22025192                   /lib/x86_64-linux-gnu/libdl-2.19.so
7fa3bad05000-7fa3baf04000 ---p 00003000 08:04 22025192                   /lib/x86_64-linux-gnu/libdl-2.19.so
7fa3baf04000-7fa3baf05000 r--p 00002000 08:04 22025192                   /lib/x86_64-linux-gnu/libdl-2.19.so
7fa3baf05000-7fa3baf06000 rw-p 00003000 08:04 22025192                   /lib/x86_64-linux-gnu/libdl-2.19.so
7fa3baf06000-7fa3baf1b000 r-xp 00000000 08:04 21518711                   /usr/lib/jvm/java-8-oracle/lib/amd64/jli/libjli.so
7fa3baf1b000-7fa3bb11b000 ---p 00015000 08:04 21518711                   /usr/lib/jvm/java-8-oracle/lib/amd64/jli/libjli.so
7fa3bb11b000-7fa3bb11c000 rw-p 00015000 08:04 21518711                   /usr/lib/jvm/java-8-oracle/lib/amd64/jli/libjli.so
7fa3bb11c000-7fa3bb135000 r-xp 00000000 08:04 22025197                   /lib/x86_64-linux-gnu/libpthread-2.19.so
7fa3bb135000-7fa3bb334000 ---p 00019000 08:04 22025197                   /lib/x86_64-linux-gnu/libpthread-2.19.so
7fa3bb334000-7fa3bb335000 r--p 00018000 08:04 22025197                   /lib/x86_64-linux-gnu/libpthread-2.19.so
7fa3bb335000-7fa3bb336000 rw-p 00019000 08:04 22025197                   /lib/x86_64-linux-gnu/libpthread-2.19.so
7fa3bb336000-7fa3bb33a000 rw-p 00000000 00:00 0 
7fa3bb33a000-7fa3bb35d000 r-xp 00000000 08:04 22025198                   /lib/x86_64-linux-gnu/ld-2.19.so
7fa3bb362000-7fa3bb43b000 rw-p 00000000 00:00 0 
7fa3bb43b000-7fa3bb43e000 ---p 00000000 00:00 0 
7fa3bb43e000-7fa3bb541000 rw-p 00000000 00:00 0                          [stack:7218]
7fa3bb541000-7fa3bb550000 r--s 000df000 08:04 9701583                    /home/hari/Android/Sdk/build-tools/23.0.3/lib/dx.jar
7fa3bb550000-7fa3bb558000 rw-s 00000000 08:04 27527837                   /tmp/hsperfdata_hari/7216
7fa3bb558000-7fa3bb559000 rw-p 00000000 00:00 0 
7fa3bb559000-7fa3bb55a000 ---p 00000000 00:00 0 
7fa3bb55a000-7fa3bb55c000 rw-p 00000000 00:00 0 
7fa3bb55c000-7fa3bb55d000 r--p 00022000 08:04 22025198                   /lib/x86_64-linux-gnu/ld-2.19.so
7fa3bb55d000-7fa3bb55e000 rw-p 00023000 08:04 22025198                   /lib/x86_64-linux-gnu/ld-2.19.so
7fa3bb55e000-7fa3bb55f000 rw-p 00000000 00:00 0 
7ffff70af000-7ffff70d1000 rw-p 00000000 00:00 0                          [stack]
7ffff7141000-7ffff7143000 r--p 00000000 00:00 0                          [vvar]
7ffff7143000-7ffff7145000 r-xp 00000000 00:00 0                          [vdso]
ffffffffff600000-ffffffffff601000 r-xp 00000000 00:00 0                  [vsyscall]

VM Arguments:
jvm_args: -Djava.awt.headless=true -Xmx1024M -Dfile.encoding=UTF-8 -Duser.country=IN -Duser.language=en -Duser.variant 
java_command: com.android.dx.command.Main --dex --force-jumbo --num-threads=4 --multi-dex --output /home/hari/AndroidStudioProjects/Nottam/app/build/intermediates/transforms/dex/debug/folders/1000/10/com.android.support-support-v4-23.3.0_6b30f1d45c794a9b40b72c627ac5fdfc9a5d3e5b /home/hari/AndroidStudioProjects/Nottam/app/build/intermediates/exploded-aar/com.android.support/support-v4/23.3.0/jars/classes.jar
java_class_path (initial): /home/hari/Android/Sdk/build-tools/23.0.3/lib/dx.jar
Launcher Type: SUN_STANDARD

Environment Variables:
PATH=/usr/local/sbin:/usr/local/bin:/usr/sbin:/usr/bin:/sbin:/bin:/usr/games:/usr/local/games:/home/hari/Android/Sdk/tools:/home/hari/Android/Sdk/platform-tools
LD_LIBRARY_PATH=.:
SHELL=/bin/bash
DISPLAY=:0

Signal Handlers:
SIGSEGV: [libjvm.so+0xabb070], sa_mask[0]=11111111011111111101111111111110, sa_flags=SA_RESTART|SA_SIGINFO
SIGBUS: [libjvm.so+0xabb070], sa_mask[0]=11111111011111111101111111111110, sa_flags=SA_RESTART|SA_SIGINFO
SIGFPE: [libjvm.so+0x918480], sa_mask[0]=11111111011111111101111111111110, sa_flags=SA_RESTART|SA_SIGINFO
SIGPIPE: [libjvm.so+0x918480], sa_mask[0]=11111111011111111101111111111110, sa_flags=SA_RESTART|SA_SIGINFO
SIGXFSZ: [libjvm.so+0x918480], sa_mask[0]=11111111011111111101111111111110, sa_flags=SA_RESTART|SA_SIGINFO
SIGILL: [libjvm.so+0x918480], sa_mask[0]=11111111011111111101111111111110, sa_flags=SA_RESTART|SA_SIGINFO
SIGUSR1: SIG_DFL, sa_mask[0]=00000000000000000000000000000000, sa_flags=none
SIGUSR2: [libjvm.so+0x919ab0], sa_mask[0]=00100000000000000000000000000000, sa_flags=SA_RESTART|SA_SIGINFO
SIGHUP: [libjvm.so+0x91aeb0], sa_mask[0]=11111111011111111101111111111110, sa_flags=SA_RESTART|SA_SIGINFO
SIGINT: [libjvm.so+0x91aeb0], sa_mask[0]=11111111011111111101111111111110, sa_flags=SA_RESTART|SA_SIGINFO
SIGTERM: [libjvm.so+0x91aeb0], sa_mask[0]=11111111011111111101111111111110, sa_flags=SA_RESTART|SA_SIGINFO
SIGQUIT: [libjvm.so+0x91aeb0], sa_mask[0]=11111111011111111101111111111110, sa_flags=SA_RESTART|SA_SIGINFO


---------------  S Y S T E M  ---------------

OS:DISTRIB_ID=Ubuntu
DISTRIB_RELEASE=14.04
DISTRIB_CODENAME=trusty
DISTRIB_DESCRIPTION="Ubuntu 14.04.4 LTS"

uname:Linux 3.19.0-25-generic #26~14.04.1-Ubuntu SMP Fri Jul 24 21:16:20 UTC 2015 x86_64
libc:glibc 2.19 NPTL 2.19 
rlimit: STACK 8192k, CORE 0k, NPROC 15349, NOFILE 4096, AS infinity
load average:15.28 4.07 1.57

/proc/meminfo:
MemTotal:        3950836 kB
MemFree:          118456 kB
MemAvailable:      66632 kB
Buffers:             500 kB
Cached:           377936 kB
SwapCached:         5004 kB
Active:          2830924 kB
Inactive:         805624 kB
Active(anon):    2819896 kB
Inactive(anon):   784576 kB
Active(file):      11028 kB
Inactive(file):    21048 kB
Unevictable:         108 kB
Mlocked:             108 kB
SwapTotal:        999420 kB
SwapFree:              8 kB
Dirty:               168 kB
Writeback:             0 kB
AnonPages:       3254152 kB
Mapped:           189080 kB
Shmem:            345700 kB
Slab:              70744 kB
SReclaimable:      33212 kB
SUnreclaim:        37532 kB
KernelStack:       12496 kB
PageTables:        52568 kB
NFS_Unstable:          0 kB
Bounce:                0 kB
WritebackTmp:          0 kB
CommitLimit:     2974836 kB
Committed_AS:    9918712 kB
VmallocTotal:   34359738367 kB
VmallocUsed:      381836 kB
VmallocChunk:   34359348220 kB
HardwareCorrupted:     0 kB
AnonHugePages:    735232 kB
CmaTotal:              0 kB
CmaFree:               0 kB
HugePages_Total:       0
HugePages_Free:        0
HugePages_Rsvd:        0
HugePages_Surp:        0
Hugepagesize:       2048 kB
DirectMap4k:      162112 kB
DirectMap2M:     3936256 kB
DirectMap1G:     1048576 kB


CPU:total 4 (2 cores per cpu, 2 threads per core) family 6 model 61 stepping 4, cmov, cx8, fxsr, mmx, sse, sse2, sse3, ssse3, sse4.1, sse4.2, popcnt, avx, avx2, aes, clmul, erms, 3dnowpref, lzcnt, ht, tsc, tscinvbit, bmi1, bmi2, adx

/proc/cpuinfo:
processor	: 0
vendor_id	: GenuineIntel
cpu family	: 6
model		: 61
model name	: Intel(R) Core(TM) i5-5200U CPU @ 2.20GHz
stepping	: 4
microcode	: 0x1d
cpu MHz		: 1958.000
cache size	: 3072 KB
physical id	: 0
siblings	: 4
core id		: 0
cpu cores	: 2
apicid		: 0
initial apicid	: 0
fpu		: yes
fpu_exception	: yes
cpuid level	: 20
wp		: yes
flags		: fpu vme de pse tsc msr pae mce cx8 apic sep mtrr pge mca cmov pat pse36 clflush dts acpi mmx fxsr sse sse2 ss ht tm pbe syscall nx pdpe1gb rdtscp lm constant_tsc arch_perfmon pebs bts rep_good nopl xtopology nonstop_tsc aperfmperf eagerfpu pni pclmulqdq dtes64 monitor ds_cpl vmx est tm2 ssse3 fma cx16 xtpr pdcm pcid sse4_1 sse4_2 x2apic movbe popcnt tsc_deadline_timer aes xsave avx f16c rdrand lahf_lm abm 3dnowprefetch ida arat epb pln pts dtherm tpr_shadow vnmi flexpriority ept vpid fsgsbase tsc_adjust bmi1 avx2 smep bmi2 erms invpcid rdseed adx smap xsaveopt
bugs		:
bogomips	: 4389.53
clflush size	: 64
cache_alignment	: 64
address sizes	: 39 bits physical, 48 bits virtual
power management:

processor	: 1
vendor_id	: GenuineIntel
cpu family	: 6
model		: 61
model name	: Intel(R) Core(TM) i5-5200U CPU @ 2.20GHz
stepping	: 4
microcode	: 0x1d
cpu MHz		: 2178.859
cache size	: 3072 KB
physical id	: 0
siblings	: 4
core id		: 0
cpu cores	: 2
apicid		: 1
initial apicid	: 1
fpu		: yes
fpu_exception	: yes
cpuid level	: 20
wp		: yes
flags		: fpu vme de pse tsc msr pae mce cx8 apic sep mtrr pge mca cmov pat pse36 clflush dts acpi mmx fxsr sse sse2 ss ht tm pbe syscall nx pdpe1gb rdtscp lm constant_tsc arch_perfmon pebs bts rep_good nopl xtopology nonstop_tsc aperfmperf eagerfpu pni pclmulqdq dtes64 monitor ds_cpl vmx est tm2 ssse3 fma cx16 xtpr pdcm pcid sse4_1 sse4_2 x2apic movbe popcnt tsc_deadline_timer aes xsave avx f16c rdrand lahf_lm abm 3dnowprefetch ida arat epb pln pts dtherm tpr_shadow vnmi flexpriority ept vpid fsgsbase tsc_adjust bmi1 avx2 smep bmi2 erms invpcid rdseed adx smap xsaveopt
bugs		:
bogomips	: 4389.53
clflush size	: 64
cache_alignment	: 64
address sizes	: 39 bits physical, 48 bits virtual
power management:

processor	: 2
vendor_id	: GenuineIntel
cpu family	: 6
model		: 61
model name	: Intel(R) Core(TM) i5-5200U CPU @ 2.20GHz
stepping	: 4
microcode	: 0x1d
cpu MHz		: 771.289
cache size	: 3072 KB
physical id	: 0
siblings	: 4
core id		: 1
cpu cores	: 2
apicid		: 2
initial apicid	: 2
fpu		: yes
fpu_exception	: yes
cpuid level	: 20
wp		: yes
flags		: fpu vme de pse tsc msr pae mce cx8 apic sep mtrr pge mca cmov pat pse36 clflush dts acpi mmx fxsr sse sse2 ss ht tm pbe syscall nx pdpe1gb rdtscp lm constant_tsc arch_perfmon pebs bts rep_good nopl xtopology nonstop_tsc aperfmperf eagerfpu pni pclmulqdq dtes64 monitor ds_cpl vmx est tm2 ssse3 fma cx16 xtpr pdcm pcid sse4_1 sse4_2 x2apic movbe popcnt tsc_deadline_timer aes xsave avx f16c rdrand lahf_lm abm 3dnowprefetch ida arat epb pln pts dtherm tpr_shadow vnmi flexpriority ept vpid fsgsbase tsc_adjust bmi1 avx2 smep bmi2 erms invpcid rdseed adx smap xsaveopt
bugs		:
bogomips	: 4389.53
clflush size	: 64
cache_alignment	: 64
address sizes	: 39 bits physical, 48 bits virtual
power management:

processor	: 3
vendor_id	: GenuineIntel
cpu family	: 6
model		: 61
model name	: Intel(R) Core(TM) i5-5200U CPU @ 2.20GHz
stepping	: 4
microcode	: 0x1d
cpu MHz		: 2197.250
cache size	: 3072 KB
physical id	: 0
siblings	: 4
core id		: 1
cpu cores	: 2
apicid		: 3
initial apicid	: 3
fpu		: yes
fpu_exception	: yes
cpuid level	: 20
wp		: yes
flags		: fpu vme de pse tsc msr pae mce cx8 apic sep mtrr pge mca cmov pat pse36 clflush dts acpi mmx fxsr sse sse2 ss ht tm pbe syscall nx pdpe1gb rdtscp lm constant_tsc arch_perfmon pebs bts rep_good nopl xtopology nonstop_tsc aperfmperf eagerfpu pni pclmulqdq dtes64 monitor ds_cpl vmx est tm2 ssse3 fma cx16 xtpr pdcm pcid sse4_1 sse4_2 x2apic movbe popcnt tsc_deadline_timer aes xsave avx f16c rdrand lahf_lm abm 3dnowprefetch ida arat epb pln pts dtherm tpr_shadow vnmi flexpriority ept vpid fsgsbase tsc_adjust bmi1 avx2 smep bmi2 erms invpcid rdseed adx smap xsaveopt
bugs		:
bogomips	: 4389.53
clflush size	: 64
cache_alignment	: 64
address sizes	: 39 bits physical, 48 bits virtual
power management:



Memory: 4k page, physical 3950836k(118456k free), swap 999420k(8k free)

vm_info: Java HotSpot(TM) 64-Bit Server VM (25.77-b03) for linux-amd64 JRE (1.8.0_77-b03), built on Mar 20 2016 22:00:46 by "java_re" with gcc 4.3.0 20080428 (Red Hat 4.3.0-8)

time: Thu Jun 16 21:41:49 2016
elapsed time: 37 seconds (0d 0h 0m 37s)

